0|100000000000| Root|08/26/2002|0|1|homepage||||||||||||||*
1|0|Search|11/17/2002 19:47:28 LabRat|0|1000000000000|search||||||||||||||||||||||*
2|3|Member Log-In|04/22/2010 14:52:41 bcelusak|0|1000000000000|login|||1|||||||||||||||||||*
3|0|Membership|07/31/2006 15:39:25 LabRat|0|6|membership|||1|||||||||||||||||||*
4|0|Publications|07/31/2006 15:43:47 LabRat|0|1|publications|||1|||||||||||||||||||*
5|0|Convention|07/31/2006 15:44:00 LabRat|0|5|convention|||1|||||||||||||||||||*
6|0|Professional Resources|09/08/2008 13:32:40 philgammage|0|1000000000000|resources|||1|||||||||||||||||||*
7|16|Committee Listings|10/13/2006 13:34:25 philgammage|0|5|committees|||1|||||||||||||||||||*
8|0|About the MLA|05/09/2003 12:37:42 |0|1000000000000|about|||1|||||||||||||||||||*
10|0|Advertising|05/04/2004 16:06:26 philgammage|0|1000000000000|advertising|#663300, #996633||1|||||||||||||||||||*
11|3|About Membership|04/09/2004 18:41:49 LabRat|0|1|about_membership|||1|||||||||||||||||||*
12|3|Join the MLA|04/09/2004 18:42:46 LabRat|0|4|join_new_intro|||1|||||||||||||||||||*
13|3|Renew Your Membership|06/14/2004 17:56:53 LabRat|1|8|join_renew|||1|||||||||||||||||||*
14|3|Update Your Member Profile|09/08/2009 17:03:03 DHodges|1|9|join_update|||1|||||||||||||||||||*
15|3|Divisions and Discussion Groups|04/09/2004 18:42:14 LabRat|0|2|divisions_groups|||1|||||||||||||||||||*
16|0|Governance|10/13/2006 12:08:23 LabRat|0|4|governance|||1|||||||||||||||||||*
17|4|Old Hazel Bookstore|02/07/2005 13:35:07 LabRat|0|1000000000000|bookstore|||0|||||||||||||||||||*
18|4|MLA Handbook|05/09/2003 13:28:35 LabRat|0|4|handbook|||1|||||||||||||||||||*
19|4|<I>MLA International Bibliography</I>|07/19/2007 14:23:21 philgammage|0|5|bibliography|||1|||||||||||||||||||*
20|0|What Is MLA Style?|07/31/2006 13:08:24 LabRat|0|3|style|||1|||||||||||||||||||*
22|4|<I>PMLA</i>|09/28/2006 10:08:03 philgammage|0|7|pmla|||1|||||||||||||||||||*
23|4|<I>Profession</I>|09/20/2006 09:51:31 philgammage|0|8|profession|||1|||||||||||||||||||*
24|4|Library Subscriptions and Licenses|12/01/2009 16:14:37 JFilippi|0|3|inst_subscriptions|||1|||||||||||||||||||*
25|6|Surveys, Reports, and Other Documents|05/24/2013 09:53:46 SMcvetty|0|2|documents|||1|||||||||||||||||||*
27|6|<I>Job Information List</I>|09/18/2006 11:20:54 philgammage|0|5|jil|||1|||||||||||||||||||*
28|6|MLA Honors and Awards|07/31/2009 10:27:48 DHodges|0|3|awards|||1|||||||||||||||||||*
29|328|Brochures Promoting Language Study|05/02/2013 11:49:02 RHale|0|1|kol_brochure|||1|||||||||||||||||||*
35|5|Procedures for Organizing Convention Meetings|10/08/2004 14:31:39 philgammage|0|1000000000000|conv_procedures|||1|||||||||||||||||||*
37|5|Exhibitors|07/22/2013 10:11:20 RHale|0|1000000000000|conv_exhibitors|||1|||||||||||||||||||*
42|5|Calls for Papers|04/02/2012 12:03:28 SMcvetty|0|1000000000000|conv_papers|||1|||||||||||||||||||*
49|28|MLA Financial Assistance|11/17/2003 10:40:30 ToniaMcCallum|0|2|award_finasst|||1|||||||||||||||||||*
50|28|Winners of MLA Prizes|5/18/00|0|3|awards_winners|||1|||||||||||||||||||*
51|28|Submissions and Nominations|02/13/2008 09:48:35 philgammage|0|4|awards_submissions|||1|||||||||||||||||||*
52|4|MLA Book Publications Program|09/24/2010 10:09:23 kmarino|0|2|publication_program|||1|||||||||||||||||||*
56|25|Making Faculty Work Visible: The Report of the MLA Commission on Professional Service|06/14/2003 15:45:13 LabRat|0|4|rep_facultyvis|||1|||||||||||||||||||*
57|25|MLA Survey of Staffing in English and Foreign Language Departments, Fall 1999|03/01/2005 10:03:41 philgammage|0|1000000000000|staffing_survey99|||1|||||||||||||||||||*
58|25|Statement of Professional Ethics|06/14/2003 15:47:26 LabRat|0|5|rep_profethics|||1|||||||||||||||||||*
60|25|Preserving Research Collections: A Collaboration between Librarians and Scholars|06/14/2003 15:49:11 LabRat|0|6|rep_preserving_collections|||1|||||||||||||||||||*
61|25|Summary of Data from Surveys by the Coalition on the Academic Workforce|03/01/2005 10:04:19 philgammage|0|1000000000000|survey_coalition|||1|||||||||||||||||||*
62|25|Guidelines for Good Practice by the Committee on the Literatures of People of Color in the US and Canada|02/24/2006 14:04:28 philgammage|0|8|rep_guidelines_poc|||1|||||||||||||||||||*
63|25|Significance of Primary Records|06/14/2003 15:50:54 LabRat|0|7|rep_primaryrecords|||1|||||||||||||||||||*
64|25|MLA Ad Hoc Committee on Teaching: Final Report|06/14/2003 15:53:17 LabRat|0|11|rep_teaching|||1|||||||||||||||||||*
65|331|Report from MLA Committee on Professional Employment|05/24/2013 11:35:20 SMcvetty|0|1|rep_employment|||1|||||||||||||||||||*
66|25|Reports from the MLA Committee on Information Technology|10/19/2006 09:35:28 philgammage|0|13|rep_it|||1|||||||||||||||||||*
67|25|Reports and Documents from MLA Committee on the Status of Women in the Profession|11/12/2003 11:43:21 ToniaMcCallum|0|15|rep_women|||1|||||||||||||||||||*
68|25|Call for Action on Problems in Scholarly Book Publishing|06/14/2003 15:55:56 LabRat|0|16|rep_scholarly_pub|||1|||||||||||||||||||*
69|25|Advice from the MLA Committee on Academic Freedom and Professional Rights and Responsibilities|08/02/2007 10:26:26 philgammage|0|1000000000000|rep_acad_freedom|||1|||||||||||||||||||*
70|25|Reports from the MLA Committee on Scholarly Editions|10/19/2006 09:28:25 philgammage|0|17|rep_scholarly|||1|||||||||||||||||||*
72|20|FAQ about the <i>MLA Handbook</i>|07/28/2010 15:23:44 DHodges|0|1|handbook_faq|||1|||||||||||||||||||*
86|51|Competitions for MLA Publication Awards|06/14/2003 22:27:51 LabRat|0|1|awards_competitions|||1|||||||||||||||||||*
103|61|Tables|06/14/2003 22:28:52 LabRat|0|1|coalition_tables|||1|||||||||||||||||||*
108|63|Read the Report Online|06/10/2003 22:03:03 LabRat|0|1|repview_records|||1|||||||||||||||||||*
114|65|Final Report|11/12/2003 11:16:23 ToniaMcCallum|0|2|prof_employment|||1|||||||||||||||||||*
115|65|Self-Study Guide for Doctoral Programs|11/12/2003 11:17:57 ToniaMcCallum|0|1|studyguide|||1|||||||||||||||||||*
135|7|Publications|06/05/2003 23:32:14 LabRat|0|1|comm_publications|||1|||||||||||||||||||*
136|7|Governance and Conventions|06/05/2003 23:33:03 LabRat|0|2|comm_gov|||1|||||||||||||||||||*
137|7|Professional Issues|09/14/2006 09:25:32 philgammage|0|4|comm_professional|||1|||||||||||||||||||*
138|7|Prizes and Awards|08/04/2009 14:49:13 DHodges|0|3|comm_honors|||1|||||||||||||||||||*
139|25|Report from the Ad Hoc Committee on the Future of Scholarly Publishing|11/12/2003 11:37:48 ToniaMcCallum|0|12|issues_scholarly_pub|||1|||||||||||||||||||*
140|60|Read the Report Online|06/10/2003 22:03:51 LabRat|0|1|repview_preservingcol|||1|||||||||||||||||||*
141|25|Policy Statements|06/14/2003 15:51:46 LabRat|0|9|rep_policy|||1|||||||||||||||||||*
142|25|Conference on the Relation between English and Foreign Languages in the Academy|06/14/2003 15:52:38 LabRat|0|10|rep_conf_relations|||1|||||||||||||||||||*
144|192|Welcome to the Modern Language Association|10/18/2007 15:48:21 philgammage|0|1000000000000|grad_welcome|||0|||||||||||||||||||*
145|192|Related Web Links|10/18/2007 15:36:08 philgammage|0|1000000000000|grad_portal|||0|||||||||||||||||||*
146|145|The Dissertation|10/18/2007 15:34:37 philgammage|0|1000000000000|grad_dissertation|||0|||||||||||||||||||*
147|145|Discussion Lists|06/09/2003 23:53:30 LabRat|0|2|grad_portal_discuss|||1|||||||||||||||||||*
148|145|General Resources and Links|10/18/2007 15:35:14 philgammage|0|1|grad_portal_gen|||0|||||||||||||||||||*
149|145|The Job Search|06/10/2003 00:24:53 LabRat|0|3|grad_portal_job|||1|||||||||||||||||||*
150|145|Graduate Student Rights|06/10/2003 00:38:57 LabRat|0|4|grad_portal_rights|||1|||||||||||||||||||*
151|145|Journals and Newspapers|09/10/2003 13:23:11 LabRat|0|6|grad_portal_journals|||1|||||||||||||||||||*
152|145|Related Organizations|06/10/2003 13:54:39 LabRat|0|7|grad_portal_related|||1|||||||||||||||||||*
153|145|Scholarships|06/10/2003 14:00:08 LabRat|0|8|grad_portal_schships|||1|||||||||||||||||||*
154|145|Teaching Resources|06/10/2003 14:22:20 LabRat|0|9|grad_portal_teach|||1|||||||||||||||||||*
155|50|Annual Prize and Award Winners|02/10/2004 12:03:07 ToniaMcCallum|0|1|pastwinners_annual|||1|||||||||||||||||||*
156|50|Biennial Prize and Award Winners|02/10/2004 12:00:41 ToniaMcCallum|0|3|pastwinners_biennial|||1|||||||||||||||||||*
157|50|MLA Award for Lifetime Scholarly Achievement|03/11/2004 11:54:30 ToniaMcCallum|0|2|pastwinners_schol_ach|||1|||||||||||||||||||*
158|86|Biennial Prizes with Competitions in 2015|06/14/2013 16:03:52 RHale|0|3|biennial_prizes2015|||1|||||||||||||||||||*
159|86|Annual Prizes with Competitions in 2014|06/14/2013 15:30:50 RHale|0|1|prizes_annual|||1|||||||||||||||||||*
160|86|Biennial Prizes with Competitions in 2014|06/11/2012 15:08:46 SMcvetty|0|2|prizes_biennial2014|||1|||||||||||||||||||*
161|5|Convention Deadlines|07/19/2010 12:09:01 kmarino|0|1000000000000|conv_deadlines|||1|||||||||||||||||||*
164|52|Information for Authors and Editors of MLA Books|04/03/2008 10:27:59 philgammage|0|1|pub_prog_guidelines|||1|||||||||||||||||||*
165|164|Approaches to Teaching World Literature|06/13/2003 14:57:42 LabRat|0|1|pub_guidelines_twl|||1|||||||||||||||||||*
166|164|Options for Teaching|06/13/2003 15:21:02 LabRat|0|2|pub_guidelines_oft|||1|||||||||||||||||||*
167|207|Candidate Information for the 2008 MLA Elections|10/08/2008 13:32:09 philgammage|0|1000000000000|candidate_info_2008|||1|||||||||||||||||||*
168|331|ADE and ADFL Online Job Counseling|05/29/2013 16:17:14 DHodges|0|3|job_counseling|||1|||||||||||||||||||*
169|168|Bulletin ADE Articles|06/15/2003 14:18:40 LabRat|0|1000000000000|bulletin_ade|||1|||||||||||||||||||*
170|168|Bulletin ADFL Articles|06/15/2003 14:22:02 LabRat|0|1000000000000|bulletin_adfl|||1|||||||||||||||||||*
171|17|Categories|06/18/2003 13:46:46 LabRat|0|1|bookstore_categories|||1|||||||||||||||||||*
172|27|Search the English Edition|07/22/2003 00:49:38 LabRat|0|2|jil_search_eng|||1|||||||||||||||||||*
173|27|Search the Foreign Language Edition|07/22/2003 00:50:28 LabRat|0|3|jil_search_fl|||1|||||||||||||||||||*
174|27|Submit or Edit a Job Listing|07/25/2003 13:24:41 LabRat|0|5|jil_submit|||1|||||||||||||||||||*
175|331|Career and Job Market Information|05/07/2013 14:33:06 SMcvetty|0|5|jil_career|||1|||||||||||||||||||*
176|331|The Job Search: Information for Job Seekers and Hiring Departments|05/29/2013 11:54:29 DHodges|0|4|jil_jobseekers|||1|||||||||||||||||||*
178|27|No Vacancy Listings|08/04/2003 23:34:18 LabRat|0|1000000000000|jil_no_vacancy|||1|||||||||||||||||||*
179|27|Access to the MLA <I>Job Information List</I> Database|10/28/2011 10:39:42 SMcvetty|0|1|jil_subscribe|||1|||||||||||||||||||*
180|5|Registration and Hotels|08/26/2008 10:59:32 philgammage|0|1000000000000|conv_registration|||0|||||||||||||||||||*
182|3|Reinstate Your Membership Part 2|05/12/2004 10:15:10 philgammage|0|1000000000000|join_reinstate|||1|||||||||||||||||||*
183|331|Guide to Doctoral Programs in English and Other Modern Languages|05/22/2013 10:45:17 SMcvetty|0|2|gdp_intro|||0|||||||||||||||||||*
184|3|Membership Admin|09/06/2003 22:30:15 LabRat|2|1000000000000|join_admin|||0|||||||||||||||||||*
185|27|JIL Admin|09/09/2003 14:02:18 LabRat|2|1000000000000|jil_admin|||0|||||||||||||||||||*
186|17|Bookstore Admin|09/09/2003 23:59:23 LabRat|2|1000000000000|bookstore_admin|||0|||||||||||||||||||*
187|145|Graduate Student Unions and Organizing|09/10/2003 11:24:53 JHevenstone|0|5|graduate_student_uni|||1|||||||||||||||||||*
188|6|What's New|10/12/2004 13:39:18 LabRat|0|1000000000000|whats_new|||0|||||||||||||||||||*
189|3|Member Search|04/09/2004 18:43:18 LabRat|1|5|member_search|||1|||||||||||||||||||*
191|5|2014 Convention Information and Services|08/16/2013 15:31:34 SMcvetty|0|1000000000000|convention_services|||1|||||||||||||||||||*
192|25|Services for Graduate Students|10/18/2007 15:36:37 philgammage|0|1000000000000|services_for_graduat|||0|||||||||||||||||||*
193|5|Program Archive|05/24/2012 14:02:17 Level9|0|2|conv_listings|||1|||||||||||||||||||*
194|193|Search by Meeting Type|10/27/2004 09:27:27 philgammage|0|3|conv_listings_type|||0|||||||||||||||||||*
196|193|Search by Participant|10/28/2003 12:29:30 ToniaMcCallum|0|1|conv_listings_part|||1|||||||||||||||||||*
197|193|Browse by Subject|05/24/2012 14:01:58 Level9|0|2|conv_listings_sub|||1|||||||||||||||||||*
198|6|MLA Language Map|04/08/2004 15:46:32 philgammage|0|1000000000000|map_main|||1|||||||||||||||||||*
199|198|Data Center|11/06/2003 22:00:02 LabRat|0|1|map_data|||1|||||||||||||||||||*
200|0|Conference on Human Rights and the Humanities|05/20/2009 09:22:16 philgammage|1|1000000000000|conference_on_human|||1|||||||||||||||||||*
202|6|Conferences|11/25/2003 16:19:44 ToniaMcCallum|0|1000000000000|conferences|||1|||||||||||||||||||*
204|16|MLA Constitution|08/27/2004 10:49:26 philgammage|0|6|mla_constitution|||1|||||||||||||||||||*
205|16|Delegate Assembly|11/19/2003 13:10:34 ToniaMcCallum|0|2|delegate_assembly|||1|||||||||||||||||||*
206|16|Executive Council|07/22/2009 16:52:10 DHodges|0|1|executive_council|||1|||||||||||||||||||*
207|16|Elections|08/27/2004 10:49:01 philgammage|0|3|elections|||1|||||||||||||||||||*
208|16|About Committees|10/13/2006 13:12:26 philgammage|0|4|about_committees_and|||1|||||||||||||||||||*
209|205|Delegate Assembly Bylaws|11/19/2003 13:31:59 ToniaMcCallum|0|2|delegate_assembly_by|||1|||||||||||||||||||*
210|16|Resolutions Ratified by the Membership|01/25/2005 09:16:21 philgammage|0|7|mla_resolutions|||1|||||||||||||||||||*
211|180|On–Site Registration|12/05/2011 09:02:30 bcelusak|1.5|1000000000000|onsite_reg|||0|||||||||||||||||||*
212|213|Convention News and Program Update|10/27/2004 14:54:38 philgammage|0|1000000000000|convention_news_and|||1|||||||||||||||||||*
213|5|2005 MLA Convention Program|09/27/2005 14:17:07 philgammage|0|1000000000000|2005|||0|||||||||||||||||||*
214|22|Recent Issues of <I>PMLA</i>|09/28/2006 10:08:24 philgammage|0|1|pmla_current_issue|||1|||||||||||||||||||*
216|5|2014 Convention Program Forms|02/11/2013 14:07:47 RHale|1|1000000000000|ssp_menu|||1|||||||||||||||||||*
217|216|Division Forms|02/24/2004 21:05:31 LabRat|1|3|ssp_main_division|||0|||||||||||||||||||*
218|216|Discussion Group Forms|02/24/2004 21:05:11 LabRat|1|4|ssp_main_discussion|||0|||||||||||||||||||*
219|216|Social Event Forms|02/26/2004 13:08:30 LabRat|1|9|ssp_main_social|||0|||||||||||||||||||*
220|216|Allied Organization Forms|02/24/2004 21:03:10 LabRat|1|5|ssp_main_allied|||0|||||||||||||||||||*
221|216|MLA Committee Forms|02/24/2004 21:04:46 LabRat|1|7|ssp_main_mla|||0|||||||||||||||||||*
222|216|Convention Forms Admin|02/21/2004 23:57:33 LabRat|1.5|1000000000000|ssp_admin|||0|||||||||||||||||||*
223|216|Proposing a Special Session|05/12/2009 10:25:08 philgammage|1|1|ssp_main|||1|||||||||||||||||||*
224|216|Membership Waiver and Funds Requests|02/22/2004 00:08:58 LabRat|1|11|ssp_waiver_funds|||0|||||||||||||||||||*
225|216|Affiliate Organization Forms|02/24/2004 21:39:09 LabRat|1|6|ssp_main_affiliate|||0|||||||||||||||||||*
226|216|Special Event Forms|02/26/2004 12:49:20 LabRat|1|10|ssp_main_special|||0|||||||||||||||||||*
227|3|Membership Benefits|04/09/2004 18:43:45 LabRat|0|6|mla_membership_benef|||1|||||||||||||||||||*
230|183|Search the Guide|04/08/2004 23:48:57 LabRat|0|1|gdp_search|||1|||||||||||||||||||*
231|7|Meeting Calendar|09/14/2006 10:17:15 philgammage|0|5|mla_committee_meetin|||1|||||||||||||||||||*
232|5|Policies for Divisions|10/07/2004 11:58:22 LabRat|0|1000000000000|policies_for_divisio|||1|||||||||||||||||||*
233|3|Reinstate Your Membership|05/12/2004 10:14:44 philgammage|0|7|join_reinstate_intro|||1|||||||||||||||||||*
235|0|ADE/ADFL|10/10/2007 12:07:41 LabRat|0|1000000000000|adefl_pages|||0|||||||||||||||||||*
237|70|CSE Approved Editions|07/06/2004 09:28:43 philgammage|0|1|cse_approved_edition|||1|||||||||||||||||||*
238|0|MLA Bookstore|07/31/2006 13:08:07 LabRat|0|2|store|||1|||||||||||||||||||*
239|238|Downloads|08/23/2004 13:25:03 LabRat|0|1000000000000|product_downloads|||0|||||||||||||||||||*
240|239|Audio Downloads|08/23/2004 13:26:15 LabRat|0|1|download_audio|||0|Y||||||||||||||||||*
241|239|Ecourse Downloads|08/23/2004 13:29:13 LabRat|0|2|download_ecourse|||0|Y||||||||||||||||||*
242|239|PDF Downloads|08/23/2004 13:30:05 LabRat|0|3|download_pdf|||0|Y||||||||||||||||||*
244|4|<I>MLA Newsletter</I>|01/31/2007 12:52:41 philgammage|0|6|newsletter|||1|||||||||||||||||||*
248|19|How to Use the Bibliography|11/17/2011 11:01:30 SMcvetty|0|1000000000000|howtouse_mlabiblio|||1|||||||||||||||||||*
250|3|Donate to the MLA|09/14/2005 12:16:42 LabRat|0|3|contribute|||1|||||||||||||||||||*
251|230|Public Interface 2000|10/12/2005 15:17:52 LabRat|0|1000000000000|gdp_summary1_2000|||0|||||||||||||||||||*
254|329|Forthcoming Meetings and Conferences of General Interest|05/03/2013 09:32:39 RHale|1|2|forthcoming_meetings|||1|||||||||||||||||||*
253|328|Public Policy Resources|05/02/2013 11:54:21 RHale|0|2|public_policy_alerts|||1|||||||||||||||||||*
252|329|Announcements of General Interest|05/03/2013 09:28:33 RHale|1|1|announce_geninterest|||1|||||||||||||||||||*
258|198|Quick Tour|08/08/2006 15:52:20 LabRat|0|1000000000000|quick_tour07|||1|||||||||||||||||||*
256|4|Desk Copy Requests|04/07/2006 10:44:41 philgammage|0|9|bookrequest|||1|||||||||||||||||||*
246|25|CSWP Associate Professor Project|02/26/2005 09:52:13 LabRat|0|2|cswp_main|||1|||||||||||||||||||*
259|25|Survey of Language Course Enrollments, Fall 2013|09/09/2013 11:47:48 SMcvetty|0|1|flsurvey|||1|||||||||||||||||||*
261|25|Task Force on Evaluating Scholarship for Tenure and Promotion|12/06/2006 16:16:56 LabRat|0|18|tenure_promotion|||1|||||||||||||||||||*
262|265|Online Forums|01/10/2008 22:21:29 LabRat|0|1000000000000|forums|||0|||||||||||||||||||*
260|235|ADE Survey of Staffing|11/11/2006 13:11:15 LabRat|1|1|adestaff|||0|||||||||||||||||||*
263|244|<i>Newsletter</i> Archive|09/19/2011 16:46:33 DHodges|0|1000000000000|nl_archive|||1|||||||||||||||||||*
264|0|MLA News|02/08/2007 15:47:28 philgammage|0|1000000000000|mlanews|||1|||||||||||||||||||*
265|3|My MLA|07/05/2007 16:39:26 LabRat|1|10|mymla|||1|||||||||||||||||||*
267|0|Nonmembers|06/28/2007 17:40:21 LabRat|0|1000000000000|nonmembers|||0|||||||||||||||||||*
266|57|Staff Survey 1999|06/13/2007 16:43:36 Level9|0|1000000000000|staffsrvy_search|||1|||||||||||||||||||*
268|235|ADE and ADFL Bulletins|08/16/2010 17:37:14 Level9|0|2|adefl_bulletin|||1|||||||||||||||||||*
269|205|Comments on the 2013 Delegate Assembly Resolutions|08/27/2013 15:27:27 SMcvetty|0|1000000000000|2013resolutioncomm|||1|||||||||||||||||||*
270|5|Ad Hoc Committee Proposals|10/24/2007 18:15:47 LabRat|1|1000000000000|adhoc|||1|||||||||||||||||||*
271|270|Proposal Comments|10/31/2007 12:21:05 LabRat|1|1|convforums_index|||0|||||||||||||||||||*
272|52|New Approaches Volumes in Preparation|11/19/2008 11:12:22 philgammage|0|2|approaches|||1|||||||||||||||||||*
275|206|Executive Council Documents|01/14/2008 12:54:53 LabRat|1|1000000000000|exc_documents|||0|||||||||||||||||||*
273|5|Allied Organization Information|09/07/2010 17:39:07 kmarino|0|1000000000000|orginfo|||0|||||||||||||||||||*
276|0|From the President|02/06/2008 12:44:21 philgammage|1|7|blog|||1|||||||||||||||||||*
278|5|Program Committee Documents|09/07/2010 17:37:39 kmarino|1|1000000000000|conv_prog|||0|||||||||||||||||||*
279|0|Comments|03/22/2008 18:59:29 LabRat|1|1000000000000|gencomment|||0|||||||||||||||||||*
277|3|Chair Information Update|03/15/2008 15:57:20 LabRat|0|1000000000000|chair_update|||0|||||||||||||||||||*
282|20|FAQ about the <i>MLA Style Manual</i>|07/27/2010 17:37:00 DHodges|0|1000000000000|style_faq|||1|||||||||||||||||||*
283|28|Applications for Financial Assistance for Convention Travel|09/17/2008 12:29:54 philgammage|1|1|grants|||1|||||||||||||||||||*
285|5|MLA Convention Blog|12/30/2010 17:10:47 Level9|0|3|conventionblog|||1|||||||||||||||||||*
286|223|Information on Panelists' and Presider's Scholarship Examples|02/11/2009 15:06:16 philgammage|0|1000000000000|scholarshipinfo|||1|||||||||||||||||||*
287|223|Detailed Description Examples|02/11/2009 15:43:08 philgammage|0|1000000000000|sessiondescription|||1|||||||||||||||||||*
284|216|American Literature Section Forms|12/04/2008 14:45:59 philgammage|1|8|ssp_main_amerlit|||1|||||||||||||||||||*
288|328|Academic Workforce Advocacy Kit|05/02/2013 11:50:59 RHale|0|3|advocacy_kit|||1|||||||||||||||||||*
290|206|Executive Council Actions|07/22/2009 16:59:27 DHodges|0|1000000000000|executive_council_ac|||1|||||||||||||||||||*
289|16|MLA Online Balloting|10/14/2010 10:32:29 kmarino|1|1000000000000|ballot_main|||1|||||||||||||||||||*
294|205|Delegate Assembly Documents|09/23/2009 15:55:10 MChu|1|1|da_documents|||1|||||||||||||||||||*
291|238|Order History|09/02/2009 17:14:43 Level9|1|1000000000000|store_order_history|||0|||||||||||||||||||*
297|5|2009 Philadelphia Information|11/25/2009 15:24:14 DHodges|0|1000000000000|phillyinfo09|||1|||||||||||||||||||*
257|0|Redesign Ideas|12/16/2009 12:21:32 Level9|0|1000000000000|redesign|||0|||||||||||||||||||*
293|5|Collaborative Session Idea Exchange|10/19/2010 13:50:17 kmarino|0|1|conv_collab|||0|||||||||||||||||||*
298|0|Leading Contributors to the MLA|01/07/2010 21:09:16 DHodges|0|1000000000000|contributors|||1|||||||||||||||||||*
295|25|CSWP Associate Professor Project Questionnaire|10/26/2009 15:11:45 Level9|0|3|cswp_questionnaire|||1|||||||||||||||||||*
300|5|MLA Presidential Addresses|02/17/2010 15:08:24 DHodges|0|1000000000000|pres_address|||1|||||||||||||||||||*
303|244|From the Editor|04/05/2010 21:14:59 Level9|0|1|fromtheeditor|||1|||||||||||||||||||*
302|4|Exam Copy|03/10/2010 15:25:56 MChu|0|10|exam_copy|||1|||||||||||||||||||*
306|5|Convention FAQs|08/18/2010 14:39:28 kmarino|0|1000000000000|convention_faqs|||1|||||||||||||||||||*
299|3|Directory|02/12/2010 17:25:21 DHodges|0|1000000000000|directory|||1|||||||||||||||||||*
308|16|Checklists for Submitting Resolutions|09/10/2010 11:17:56 kmarino|0|8|submit_checklist|||1|||||||||||||||||||*
301|0|News from the MLA|02/18/2010 10:35:32 DHodges|0|1000000000000|news_from_mla|||1|||||||||||||||||||*
304|0|MLA Blog|07/15/2010 16:54:58 Level9|0|1000000000000|dsblog|||0|||||||||||||||||||*
309|216|Proposing a Forum and Linked Sessions|11/03/2010 10:33:08 MChu|0|2|ssp_main_forum|||1|||||||||||||||||||*
310|25|Language Enrollment Database, 1958–2009|12/28/2010 15:27:00 kmarino|0|1000000000000|flsurvey_search|||1|||||||||||||||||||*
311|5|Convention News and Program Update|12/30/2010 12:12:09 DHodges|0|1000000000000|cnpu|||1|||||||||||||||||||*
317|16|MLA Steering Committee on New Structures for Languages in Higher Education|08/14/2012 10:16:41 SMcvetty|0|1000000000000|scnsl|||1|||||||||||||||||||*
318|205|Delegate Assembly Proposal Page|09/02/2011 16:38:46 Level9|1|3|da_prop_main|||1|||||||||||||||||||*
312|5|2014 Program|09/18/2013 14:58:03 DHodges|0|4|program|||1|||||||||||||||||||*
319|5|Your MLA Convention|12/29/2011 10:13:52 SMcvetty|0|1000000000000|yourconvention|||1|||||||||||||||||||*
320|27|PDFs of the MLA <i>Job Information List</i>|10/19/2011 10:21:16 SMcvetty|0|1000000000000|jil_issues|||1|||||||||||||||||||*
321|4|Office of Scholarly Communication|11/29/2011 10:47:35 SMcvetty|0|1|schol_communication|||1|||||||||||||||||||*
322|5|<i>Convention Daily</i>|01/04/2012 16:58:01 DHodges|0|1000000000000|conventiondaily|||1|||||||||||||||||||*
323|239|E-reader Downloads|02/15/2012 12:07:24 SMcvetty|0|1000000000000|ereader_downloads|||1|||||||||||||||||||*
324|52|New Options Volumes in Preparation|12/21/2012 10:08:18 temp_TPeterson|0|3|options|||1|||||||||||||||||||*
325|328|Academic Workforce Data Center|05/02/2013 11:52:07 RHale|0|4|acad_work_search|||1|||||||||||||||||||*
326|52|New Teaching Languages, Literatures, and Cultures Volumes in Preparation|12/21/2012 10:08:48 temp_TPeterson|0|4|tllc|||1|||||||||||||||||||*
327|25|Documents from the Committee on the Status of Graduate Students in the Profession|04/04/2013 11:10:08 RHale|0|14|doc_gradstudents|||1|||||||||||||||||||*
328|6|Advocacy|05/30/2013 15:43:36 JAltreuter|0|1|advocacy|||1|||||||||||||||||||*
329|6|Conferences, Fellowships, and Announcements|05/02/2013 16:56:16 RHale|0|1000000000000|confs_fellows_anns|||1|||||||||||||||||||*
330|6|Professional Directories|05/06/2013 12:01:20 SMcvetty|0|6|prof_directories|||1|||||||||||||||||||*
331|6|Career Resources|05/30/2013 15:34:51 JAltreuter|0|4|career_resources|||1|||||||||||||||||||*
332|27|Search the <i>Job Information List</i>|08/14/2013 11:58:22 SMcvetty|0|4|jil_search|||0|||||||||||||||||||*

######END######
